<?xml version="1.0" encoding="UTF-8" standalone="no"?>
<svg
   xmlns:dc="http://purl.org/dc/elements/1.1/"
   xmlns:cc="http://creativecommons.org/ns#"
   xmlns:rdf="http://www.w3.org/1999/02/22-rdf-syntax-ns#"
   xmlns:svg="http://www.w3.org/2000/svg"
   xmlns="http://www.w3.org/2000/svg"
   xmlns:sodipodi="http://sodipodi.sourceforge.net/DTD/sodipodi-0.dtd"
   xmlns:inkscape="http://www.inkscape.org/namespaces/inkscape"
   width="303"
   height="292.5"
   viewBox="0 0 80.168752 77.390625"
   version="1.1"
   id="svg980"
   inkscape:version="1.0.2 (e86c870879, 2021-01-15)"
   sodipodi:docname="drawing-1.svg">
  <defs
     id="defs974" />
  <sodipodi:namedview
     id="base"
     pagecolor="#ffffff"
     bordercolor="#666666"
     borderopacity="1.0"
     inkscape:pageopacity="0.0"
     inkscape:pageshadow="2"
     inkscape:zoom="1.5858086"
     inkscape:cx="151.5"
     inkscape:cy="146.25"
     inkscape:document-units="mm"
     inkscape:current-layer="layer1"
     inkscape:document-rotation="0"
     showgrid="false"
     fit-margin-top="30"
     fit-margin-left="30"
     fit-margin-right="30"
     fit-margin-bottom="30"
     units="px"
     lock-margins="true"
     inkscape:window-width="1806"
     inkscape:window-height="1220"
     inkscape:window-x="2598"
     inkscape:window-y="72"
     inkscape:window-maximized="0" />
  <metadata
     id="metadata977">
    <rdf:RDF>
      <cc:Work
         rdf:about="">
        <dc:format>image/svg+xml</dc:format>
        <dc:type
           rdf:resource="http://purl.org/dc/dcmitype/StillImage" />
        <dc:title></dc:title>
      </cc:Work>
    </rdf:RDF>
  </metadata>
  <g
     inkscape:label="Layer 1"
     inkscape:groupmode="layer"
     id="layer1"
     transform="translate(-174.6061,-141.97731)">
    <path
       id="path850-6-9-3_1_"
       class="st3"
       d="m 198.89485,211.43043 h -12.14437 c -2.32834,0 -4.20688,-1.87854 -4.20688,-4.20687 v -12.17084 c 0,-8.5725 6.95854,-15.53104 15.53104,-15.53104 h 0.84667 c 8.5725,0 15.53104,6.95854 15.53104,15.53104 v 0.84667 c -0.0265,8.5725 -6.985,15.50458 -15.5575,15.53104 z"
       style="fill:#3c6eb4;stroke-width:0.264583" />
    <path
       class="st10"
       d="m 242.41881,211.43043 h -23.57438 c -2.43416,0 -4.41854,-1.98437 -4.41854,-4.41854 v -23.09813 c 0,-2.43416 1.98438,-4.41854 4.41854,-4.41854 h 23.57438 c 2.43417,0 4.41854,1.98438 4.41854,4.41854 v 23.09813 c 0,2.46062 -1.98437,4.41854 -4.41854,4.41854 z"
       id="path1066"
       style="clip-rule:evenodd;fill:#db3279;fill-rule:evenodd;stroke-width:0.264583" />
    <path
       class="st11"
       d="m 220.35256,179.49609 h -33.39042 c -2.43416,0 -4.41854,-1.98266 -4.41854,-4.41472 v -20.75184 c 0,-2.43206 1.98438,-4.41472 4.41854,-4.41472 h 33.39042 c 2.43417,0 4.41854,1.98266 4.41854,4.41472 v 20.75184 c 0,2.4585 -1.98437,4.41472 -4.41854,4.41472 z"
       id="path1068"
       style="clip-rule:evenodd;fill:#79db32;fill-rule:evenodd;stroke-width:0.264469" />
    <path
       class="st12"
       d="m 242.41881,179.52168 h -13.25563 c -2.43416,0 -4.41854,-1.98437 -4.41854,-4.41854 v -20.76979 c 0,-2.43417 1.98438,-4.41854 4.41854,-4.41854 h 13.25563 c 2.43417,0 4.41854,1.98437 4.41854,4.41854 v 20.76979 c 0,2.46062 -1.98437,4.41854 -4.41854,4.41854 z"
       id="path1070"
       style="clip-rule:evenodd;fill:#e59728;fill-rule:evenodd;stroke-width:0.264583" />
    <g
       id="g1080"
       style="opacity:0.08"
       transform="matrix(0.26458333,0,0,0.26458333,-120.93348,-3.2524828)">
      <path
         class="st13"
         d="m 1373.3,690.8 h -50.1 c -9.2,0 -16.7,-7.5 -16.7,-16.7 v -78.5 c 0,-9.2 7.5,-16.7 16.7,-16.7 h 50.1 c 9.2,0 16.7,7.5 16.7,16.7 v 78.5 c 0,9.3 -7.5,16.7 -16.7,16.7 z"
         id="path1074" />
      <path
         class="st13"
         d="m 1263.9,690.8 h 26 c 9.2,0 16.7,-7.5 16.7,-16.7 v -78.5 c 0,-9.2 -7.5,-16.7 -16.7,-16.7 h -126.2 c -4.7,0 -9,2 -12,5.1 z"
         id="path1076" />
      <path
         class="st13"
         d="m 1385.4,806.2 c 2.8,-3 4.6,-7 4.6,-11.5 v -87.3 c 0,-9.2 -7.5,-16.7 -16.7,-16.7 h -89.1 c -5.5,0 -10.3,2.6 -13.3,6.7 z"
         id="path1078" />
    </g>
    <path
       id="path2405-6-9"
       inkscape:original="M 1304.0703 396.66016 A 10 10 0 0 0 1296.8887 399.61719 A 10 10 0 1 0 1311.0879 399.61719 A 10 10 0 0 0 1304.0703 396.66016 z M 1326.6309 420.51367 A 9.45 9.45 0 0 0 1319.6895 423.51758 A 10.08 10.08 0 0 0 1319.8887 437.7168 C 1319.8887 437.7168 1340.5887 458.31758 1366.3887 484.01758 C 1371.8887 489.51758 1372.7883 496.1168 1369.9883 505.7168 C 1367.1883 515.3168 1360.0887 526.5168 1350.8887 535.7168 C 1341.6887 544.9168 1330.4887 552.11797 1320.8887 554.91797 C 1311.2887 557.71797 1304.6895 556.91836 1299.1895 551.31836 C 1286.2895 538.51836 1274.7883 526.81797 1266.4883 518.41797 L 1256.4883 508.41797 C 1255.1883 507.21797 1254.2883 506.31758 1253.4883 505.51758 C 1253.0883 505.21758 1252.6895 504.81797 1252.1895 504.41797 A 12 12 0 0 0 1250.6895 503.41797 A 7.06 7.06 0 0 0 1248.1895 502.41797 A 9.89 9.89 0 0 0 1238.5879 505.01758 A 10.08 10.08 0 0 0 1235.6895 513.41797 C 1235.9895 516.51797 1238.3879 518.81797 1240.5879 520.91797 C 1241.0879 521.41797 1241.5879 521.91836 1242.5879 522.81836 C 1244.8879 525.01836 1248.1887 528.41719 1252.3887 532.61719 C 1260.7887 541.01719 1272.2895 552.71719 1285.1895 565.61719 C 1296.4895 576.81719 1312.5895 578.3168 1326.6895 574.2168 C 1340.7895 570.1168 1354.0895 561.01797 1365.1895 549.91797 C 1376.2895 538.81797 1385.2887 525.41836 1389.3887 511.31836 C 1393.4887 497.21836 1391.8879 481.11797 1380.5879 469.91797 L 1334.0879 423.51758 A 9.82 9.82 0 0 0 1326.8887 420.51758 A 9.45 9.45 0 0 0 1326.6309 420.51367 z M 1262.7715 438.16016 A 10 10 0 0 0 1255.5879 441.11719 A 10 10 0 1 0 1269.7891 441.11719 A 10 10 0 0 0 1262.7715 438.16016 z M 1286.3281 461.60742 A 10 10 0 0 0 1279.0879 464.7168 A 10.08 10.08 0 0 0 1279.2891 478.91797 L 1331.4883 530.91797 A 10.15 10.15 0 0 0 1341.2891 533.61719 A 10 10 0 0 0 1348.3887 526.41797 A 10.21 10.21 0 0 0 1345.6895 516.61719 L 1293.4883 464.61719 A 10 10 0 0 0 1286.3281 461.60742 z M 1222.5703 478.35938 A 10 10 0 0 0 1215.3887 481.31836 A 10 10 0 1 0 1229.5879 481.31836 A 10 10 0 0 0 1222.5703 478.35938 z "
       inkscape:radius="7.951685"
       sodipodi:type="inkscape:offset"
       class="st14"
       transform="matrix(0.24740525,0,0,0.24740694,-107.42753,60.316319)"
       style="clip-rule:evenodd;fill:#ffffff;fill-rule:evenodd;stroke:none;stroke-width:5.34715;stroke-miterlimit:4;stroke-dasharray:none;stroke-opacity:1"
       d="m 1304.1348,388.70898 c -4.7728,-0.0392 -9.5292,1.92009 -12.8907,5.3086 -4.9561,4.99635 -6.5324,13.04856 -3.8261,19.54492 2.7062,6.49636 9.5328,11.04883 16.5703,11.04883 2.3424,0 4.5944,-0.65395 6.7461,-1.56641 -2.8509,6.70128 -1.6704,15.19759 3.5898,20.35156 0.039,0.039 20.6756,20.57818 46.4414,46.24414 1.7789,1.77888 2.3761,3.01551 2.6817,4.9375 0.3055,1.922 0.1069,4.80204 -1.0918,8.91211 -1.2122,4.15618 -3.7136,9.11349 -7.0039,14.11329 -0.9031,-2.45653 -2.1928,-4.77295 -4.0508,-6.61914 l -0.01,-0.008 -52.1192,-51.91797 c -3.3361,-3.4129 -8.0789,-5.40619 -12.8515,-5.40234 h -0 c -2.4471,0.002 -4.8808,0.53537 -7.125,1.50977 0.016,-0.0376 0.049,-0.0657 0.064,-0.10352 2.7065,-6.49577 1.1309,-14.54817 -3.8243,-19.54492 a 7.9524801,7.9524801 0 0 0 -0,0 c -3.2918,-3.31837 -7.9217,-5.26984 -12.5957,-5.3086 h -0 c -4.7733,-0.0396 -9.5307,1.9197 -12.8925,5.3086 a 7.9524801,7.9524801 0 0 0 -0,0 c -4.9551,4.99675 -6.5308,13.04915 -3.8242,19.54492 2.7066,6.49577 9.5352,11.04687 16.5723,11.04688 2.611,0 5.1132,-0.794 7.4667,-1.91407 -2.8788,6.70987 -1.7047,15.23571 3.5704,20.40235 3e-4,3.5e-4 -4e-4,0.002 0,0.002 l 52.0957,51.89648 c 1.8159,1.8446 4.0973,3.12574 6.5175,4.03711 -4.8642,3.17981 -9.6618,5.58065 -13.6777,6.75196 -4.1345,1.20589 -7.0355,1.42097 -8.9394,1.125 -1.9039,-0.29598 -3.0909,-0.86338 -4.8594,-2.66407 a 7.9524801,7.9524801 0 0 0 -0.072,-0.0723 c -12.8576,-12.75795 -24.333,-24.4321 -32.6465,-32.84571 a 7.9524801,7.9524801 0 0 0 -0.033,-0.0332 l -10,-10 a 7.9524801,7.9524801 0 0 0 -0.2304,-0.2207 c -1.1874,-1.09603 -1.9687,-1.87878 -2.7696,-2.67969 a 7.9524801,7.9524801 0 0 0 -0.8515,-0.73828 c 0.282,0.2115 -0.1968,-0.22188 -1.1036,-0.94727 a 7.9524801,7.9524801 0 0 0 -0.072,-0.0566 c -0.7103,-0.5549 -1.4674,-1.04614 -2.2461,-1.5 -1.4725,-0.9239 -3.1077,-1.5734 -4.8067,-1.9414 -3.7283,-0.9476 -7.6851,-0.47718 -11.2382,0.99023 0.071,-0.15654 0.2013,-0.27859 0.2675,-0.4375 2.7063,-6.49635 1.128,-14.54857 -3.8281,-19.54492 -3.2916,-3.3189 -7.9215,-5.27141 -12.5957,-5.31055 a 7.9524801,7.9524801 0 0 0 -0,0 c -4.7733,-0.0383 -9.5318,1.92274 -12.8926,5.3125 -4.9546,4.9965 -6.5302,13.04746 -3.8242,19.54297 2.7062,6.49636 9.5328,11.04883 16.5703,11.04883 2.4282,0 4.759,-0.70103 6.9765,-1.67773 -1.3855,3.01052 -2.0517,6.34769 -1.666,9.64062 0.6881,6.68219 5.0683,10.26608 7.2735,12.36719 0.4932,0.49264 1.1372,1.13369 2.1953,2.08594 l -0.1758,-0.16407 c 2.0899,1.99905 5.4301,5.43204 9.6738,9.67578 8.3556,8.35556 19.8719,20.07106 32.8008,33 a 7.9524801,7.9524801 0 0 0 0.025,0.0254 c 13.73,13.60855 33.1608,15.28423 49.3184,10.58594 15.8413,-4.60636 30.0929,-14.50118 41.9023,-26.31054 11.843,-11.84301 21.617,-26.20338 26.2109,-42.00196 4.7081,-16.19123 2.9016,-35.65168 -10.8379,-49.26953 l -46.4804,-46.38086 0.1054,0.10742 c -3.3597,-3.4815 -8.1914,-5.49517 -13.0293,-5.42968 l 0.336,0.002 c -0.1537,-0.004 -0.3072,-0.006 -0.461,-0.006 h -0 c -2.1315,-0.007 -4.2364,0.45521 -6.2266,1.2168 0.034,-0.0782 0.1,-0.13802 0.1328,-0.2168 2.7063,-6.49636 1.128,-14.54857 -3.8281,-19.54492 -3.2923,-3.31883 -7.923,-5.27036 -12.5976,-5.3086 z m 9.832,29.28711 c -0.016,0.0168 -0.027,0.0378 -0.043,0.0547 -0.015,0.0158 -0.034,0.0271 -0.049,0.043 z m -40.6016,41.19922 c -0.01,0.008 -0.013,0.0189 -0.021,0.0274 -0.01,0.006 -0.012,0.01 -0.018,0.0156 z m -40.3808,40.18164 c -0.01,0.008 -0.013,0.0191 -0.022,0.0273 -0.01,0.009 -0.022,0.0141 -0.031,0.0234 z m 123.1113,28.9961 c -0,0.0104 -0.01,0.0195 -0.01,0.0137 0,-0.005 0,-0.009 0.01,-0.0137 z" />
    <path
       id="path2405-6-9-9"
       inkscape:original="M 1369.0039 368.07617 A 10 10 0 0 0 1362.0879 371.0332 A 10 10 0 1 0 1376.2871 371.0332 A 10 10 0 0 0 1369.2695 368.07617 A 10 10 0 0 0 1369.0039 368.07617 z M 1391.8301 391.92773 L 1391.8301 391.92969 A 9.45 9.45 0 0 0 1384.8887 394.93359 A 10.08 10.08 0 0 0 1385.0879 409.13281 C 1385.0879 409.13281 1405.7879 429.73359 1431.5879 455.43359 C 1437.0879 460.93359 1437.9875 467.53281 1435.1875 477.13281 C 1432.3875 486.73281 1425.2879 497.93281 1416.0879 507.13281 C 1406.8879 516.33281 1395.6879 523.53397 1386.0879 526.33398 C 1376.4879 529.13398 1369.8887 528.33438 1364.3887 522.73438 C 1351.4887 509.93437 1339.9875 498.23398 1331.6875 489.83398 L 1321.6875 479.83398 C 1320.3875 478.63398 1319.4875 477.73359 1318.6875 476.93359 C 1318.2875 476.63359 1317.8887 476.23398 1317.3887 475.83398 A 12 12 0 0 0 1315.8887 474.83398 A 7.06 7.06 0 0 0 1313.3887 473.83398 A 9.89 9.89 0 0 0 1303.7871 476.43359 A 10.08 10.08 0 0 0 1300.8887 484.83398 C 1301.1887 487.93398 1303.5871 490.23398 1305.7871 492.33398 C 1306.2871 492.83398 1306.7871 493.33437 1307.7871 494.23438 C 1310.0871 496.43437 1313.3879 499.8332 1317.5879 504.0332 C 1325.9879 512.4332 1337.4887 524.1332 1350.3887 537.0332 C 1361.6887 548.2332 1377.7887 549.73281 1391.8887 545.63281 C 1405.9887 541.5328 1419.2887 532.43397 1430.3887 521.33398 C 1441.4887 510.23398 1450.4879 496.83437 1454.5879 482.73438 C 1458.6879 468.63437 1457.0871 452.53398 1445.7871 441.33398 L 1399.2871 394.93359 A 9.82 9.82 0 0 0 1392.0879 391.93359 A 9.45 9.45 0 0 0 1391.8301 391.92773 z M 1327.7051 409.57617 A 10 10 0 0 0 1320.7871 412.5332 A 10 10 0 1 0 1334.9883 412.5332 A 10 10 0 0 0 1327.9707 409.57617 A 10 10 0 0 0 1327.7051 409.57617 z M 1351.5273 433.02344 A 10 10 0 0 0 1344.2871 436.13281 A 10.08 10.08 0 0 0 1344.4883 450.33398 L 1396.6875 502.33398 A 10.15 10.15 0 0 0 1406.4883 505.0332 A 10 10 0 0 0 1413.5879 497.83398 A 10.21 10.21 0 0 0 1410.8887 488.0332 L 1358.6875 436.0332 A 10 10 0 0 0 1351.5273 433.02344 z M 1287.5039 449.77539 A 10 10 0 0 0 1280.5879 452.73438 A 10 10 0 1 0 1294.7871 452.73438 A 10 10 0 0 0 1287.7695 449.77539 A 10 10 0 0 0 1287.5039 449.77539 z "
       inkscape:radius="0"
       sodipodi:type="inkscape:offset"
       class="st9"
       transform="matrix(0.24740525,0,0,0.24740694,-123.55349,67.386088)"
       style="clip-rule:evenodd;fill:#294172;fill-rule:evenodd;stroke-width:5.34715;stroke-miterlimit:4;stroke-dasharray:none"
       d="m 1369.0039,368.07617 a 10,10 0 0 0 -6.916,2.95703 10,10 0 1 0 14.1992,0 10,10 0 0 0 -7.0176,-2.95703 10,10 0 0 0 -0.2656,0 z m 22.8262,23.85156 v 0.002 a 9.45,9.45 0 0 0 -6.9414,3.0039 10.08,10.08 0 0 0 0.1992,14.19922 c 0,0 20.7,20.60078 46.5,46.30078 5.5,5.5 6.3996,12.09922 3.5996,21.69922 -2.8,9.6 -9.8996,20.8 -19.0996,30 -9.2,9.2 -20.4,16.40116 -30,19.20117 -9.6,2.8 -16.1992,2.0004 -21.6992,-3.5996 -12.9,-12.80001 -24.4012,-24.5004 -32.7012,-32.9004 l -10,-10 c -1.3,-1.2 -2.2,-2.10039 -3,-2.90039 -0.4,-0.3 -0.7988,-0.69961 -1.2988,-1.09961 a 12,12 0 0 0 -1.5,-1 7.06,7.06 0 0 0 -2.5,-1 9.89,9.89 0 0 0 -9.6016,2.59961 10.08,10.08 0 0 0 -2.8984,8.40039 c 0.3,3.1 2.6984,5.4 4.8984,7.5 0.5,0.5 1,1.00039 2,1.9004 2.3,2.19999 5.6008,5.59882 9.8008,9.79882 8.4,8.4 19.9008,20.1 32.8008,33 11.3,11.2 27.4,12.69961 41.5,8.59961 14.1,-4.10001 27.4,-13.19884 38.5,-24.29883 11.1,-11.1 20.0992,-24.49961 24.1992,-38.5996 4.1,-14.10001 2.4992,-30.2004 -8.8008,-41.4004 l -46.5,-46.40039 a 9.82,9.82 0 0 0 -7.1992,-3 9.45,9.45 0 0 0 -0.2578,-0.006 z m -64.125,17.64844 a 10,10 0 0 0 -6.918,2.95703 10,10 0 1 0 14.2012,0 10,10 0 0 0 -7.0176,-2.95703 10,10 0 0 0 -0.2656,0 z m 23.8222,23.44727 a 10,10 0 0 0 -7.2402,3.10937 10.08,10.08 0 0 0 0.2012,14.20117 l 52.1992,52 a 10.15,10.15 0 0 0 9.8008,2.69922 10,10 0 0 0 7.0996,-7.19922 10.21,10.21 0 0 0 -2.6992,-9.80078 l -52.2012,-52 a 10,10 0 0 0 -7.1602,-3.00976 z m -64.0234,16.75195 a 10,10 0 0 0 -6.916,2.95899 10,10 0 1 0 14.1992,0 10,10 0 0 0 -7.0176,-2.95899 10,10 0 0 0 -0.2656,0 z" />
    <path
       id="path1581"
       style="opacity:0.115652;fill:#3c6eb4;fill-opacity:1;stroke:none;stroke-width:0.999999px;stroke-linecap:butt;stroke-linejoin:miter;stroke-opacity:1"
       d="M 107.7168 104.28125 A 9.3507496 9.3508135 0 0 0 121.26172 117.14844 L 107.7168 104.28125 z M 130.2832 125.7207 A 9.3507496 9.3508135 0 0 0 130.10742 125.90039 A 9.4255556 9.42562 0 0 0 130.29492 139.17969 L 179.10547 187.80273 A 9.4910109 9.4910757 0 0 0 188.26953 190.32812 A 9.3507496 9.3508135 0 0 0 193.85742 186.11328 L 193.48242 185.76367 L 130.2832 125.7207 z M 77.009766 138.65625 A 9.3507496 9.3508135 0 0 0 70.542969 141.42383 A 9.3507496 9.3508135 0 1 0 83.820312 141.42383 A 9.3507496 9.3508135 0 0 0 77.257812 138.65625 A 9.3507496 9.3508135 0 0 0 77.009766 138.65625 z M 98.685547 160.83789 A 9.2478914 9.2479545 0 0 0 92.236328 163.58398 A 9.4255556 9.42562 0 0 0 89.525391 171.43945 C 89.805913 174.33821 92.048304 176.48945 94.105469 178.45312 C 94.573006 178.92067 95.041488 179.38889 95.976562 180.23047 C 98.127235 182.28764 101.21331 185.46524 105.14062 189.39258 C 112.99525 197.24726 123.75003 208.18745 135.8125 220.25 C 146.37885 230.72291 161.43263 232.12485 174.61719 228.29102 C 187.80174 224.45717 200.23981 215.94971 210.61914 205.57031 C 211.27469 204.91476 211.92133 204.25045 212.56055 203.57812 L 198.78125 190.71289 C 198.2769 191.24488 197.7652 191.77191 197.24609 192.29102 C 188.6434 200.89376 178.17008 207.62786 169.19336 210.24609 C 160.21664 212.86432 154.04721 212.11536 148.9043 206.87891 C 136.84183 194.90986 126.08729 183.96992 118.32617 176.11523 L 108.97461 166.76367 C 107.75901 165.64157 106.91798 164.8008 106.16992 164.05273 C 105.79589 163.77221 105.42262 163.39747 104.95508 163.02344 A 11.2209 11.220976 0 0 0 103.55273 162.08789 A 6.6016292 6.6016743 0 0 0 101.21484 161.1543 A 9.2478914 9.2479545 0 0 0 98.685547 160.83789 z "
       transform="matrix(0.26458333,0,0,0.26458333,174.6061,141.97731)" />
  </g>
</svg>
